^C:\USERS\JOHN\DOCUMENTS\VISUAL STUDIO 2010\PROJECTS\ALGORITHMSHW2\ALGORITHMSHW2\DEBUG\ALGHW2.OBJ
/OUT:"C:\Users\John\Documents\Visual Studio 2010\Projects\AlgorithmsHW2\Debug\AlgorithmsHW2.exe" /NOLOGO kernel32.lib user32.lib gdi32.lib winspool.lib comdlg32.lib advapi32.lib shell32.lib ole32.lib oleaut32.lib uuid.lib odbc32.lib odbccp32.lib /MANIFEST /ManifestFile:"Debug\AlgorithmsHW2.exe.intermediate.manifest" /MANIFESTUAC:"level='asInvoker' uiAccess='false'" /DEBUG /PDB:"C:\Users\John\Documents\Visual Studio 2010\Projects\AlgorithmsHW2\Debug\AlgorithmsHW2.pdb" /TLBID:1 /DYNAMICBASE /NXCOMPAT /IMPLIB:"C:\Users\John\Documents\Visual Studio 2010\Projects\AlgorithmsHW2\Debug\AlgorithmsHW2.lib" /MACHINE:X86 Debug\AlgHW2.obj
^C:\USERS\JOHN\DOCUMENTS\VISUAL STUDIO 2012\PROJECTS\COURSERA ALG\ALGORITHMSHW2\ALGORITHMSHW2\DEBUG\ALGHW2.OBJ
/OUT:"C:\USERS\JOHN\DOCUMENTS\VISUAL STUDIO 2012\PROJECTS\COURSERA ALG\ALGORITHMSHW2\DEBUG\ALGORITHMSHW2.EXE" /INCREMENTAL /NOLOGO kernel32.lib user32.lib gdi32.lib winspool.lib comdlg32.lib advapi32.lib shell32.lib ole32.lib oleaut32.lib uuid.lib odbc32.lib odbccp32.lib /MANIFEST /MANIFESTUAC:"level='asInvoker' uiAccess='false'" /manifest:embed /DEBUG /PDB:"C:\USERS\JOHN\DOCUMENTS\VISUAL STUDIO 2012\PROJECTS\COURSERA ALG\ALGORITHMSHW2\DEBUG\ALGORITHMSHW2.PDB" /TLBID:1 /DYNAMICBASE /NXCOMPAT /IMPLIB:"C:\USERS\JOHN\DOCUMENTS\VISUAL STUDIO 2012\PROJECTS\COURSERA ALG\ALGORITHMSHW2\DEBUG\ALGORITHMSHW2.LIB" /MACHINE:X86 DEBUG\ALGHW2.OBJ
